%!PS-Adobe-3.0 EPSF-3.0
%%Creator: cairo 1.16.0 (https://cairographics.org)
%%CreationDate: Sat Jul  8 19:25:24 2023
%%Pages: 1
%%DocumentData: Clean7Bit
%%LanguageLevel: 2
%%BoundingBox: 0 0 1000 1000
%%EndComments
%%BeginProlog
50 dict begin
/q { gsave } bind def
/Q { grestore } bind def
/cm { 6 array astore concat } bind def
/w { setlinewidth } bind def
/J { setlinecap } bind def
/j { setlinejoin } bind def
/M { setmiterlimit } bind def
/d { setdash } bind def
/m { moveto } bind def
/l { lineto } bind def
/c { curveto } bind def
/h { closepath } bind def
/re { exch dup neg 3 1 roll 5 3 roll moveto 0 rlineto
      0 exch rlineto 0 rlineto closepath } bind def
/S { stroke } bind def
/f { fill } bind def
/f* { eofill } bind def
/n { newpath } bind def
/W { clip } bind def
/W* { eoclip } bind def
/BT { } bind def
/ET { } bind def
/BDC { mark 3 1 roll /BDC pdfmark } bind def
/EMC { mark /EMC pdfmark } bind def
/cairo_store_point { /cairo_point_y exch def /cairo_point_x exch def } def
/Tj { show currentpoint cairo_store_point } bind def
/TJ {
  {
    dup
    type /stringtype eq
    { show } { -0.001 mul 0 cairo_font_matrix dtransform rmoveto } ifelse
  } forall
  currentpoint cairo_store_point
} bind def
/cairo_selectfont { cairo_font_matrix aload pop pop pop 0 0 6 array astore
    cairo_font exch selectfont cairo_point_x cairo_point_y moveto } bind def
/Tf { pop /cairo_font exch def /cairo_font_matrix where
      { pop cairo_selectfont } if } bind def
/Td { matrix translate cairo_font_matrix matrix concatmatrix dup
      /cairo_font_matrix exch def dup 4 get exch 5 get cairo_store_point
      /cairo_font where { pop cairo_selectfont } if } bind def
/Tm { 2 copy 8 2 roll 6 array astore /cairo_font_matrix exch def
      cairo_store_point /cairo_font where { pop cairo_selectfont } if } bind def
/g { setgray } bind def
/rg { setrgbcolor } bind def
/d1 { setcachedevice } bind def
/cairo_data_source {
  CairoDataIndex CairoData length lt
    { CairoData CairoDataIndex get /CairoDataIndex CairoDataIndex 1 add def }
    { () } ifelse
} def
/cairo_flush_ascii85_file { cairo_ascii85_file status { cairo_ascii85_file flushfile } if } def
/cairo_image { image cairo_flush_ascii85_file } def
/cairo_imagemask { imagemask cairo_flush_ascii85_file } def
%%EndProlog
%%BeginSetup
%%EndSetup
%%Page: 1 1
%%BeginPageSetup
%%PageBoundingBox: 0 0 1000 1000
%%EndPageSetup
q 0 0 1000 1000 rectclip
1 0 0 -1 0 1000 cm q
0 g
0 0 1000 1000 rectfill
Q q
652 416.352 12 167.145 re W n
1 g
657.957 416.352 m 660.832 416.352 663.164 419.469 663.164 423.316 c 663.164
 576.531 l 663.164 580.379 660.832 583.496 657.957 583.496 c 655.082 583.496
 652.75 580.379 652.75 576.531 c 652.75 423.316 l 652.75 419.469 655.082
 416.352 657.957 416.352 c h
657.957 416.352 m f
Q q
151.309 416.766 474.184 115.461 re W n
1 g
252.473 532.227 m 242.371 529.699 l 153.707 529.699 l 153.707 521.844 l
 166.895 511.461 l 166.895 433.039 l 151.324 428.41 l 155.953 419.293 l 
240.969 419.293 l 251.07 416.766 l 251.07 452.539 l 243.355 455.625 l 226.098
 429.953 l 192.289 429.953 l 192.289 467.832 l 208.984 467.832 l 219.227
 452.121 l 227.082 452.121 l 227.082 492.945 l 217.961 497.574 l 208.844
 478.633 l 192.289 478.633 l 192.289 518.898 l 224.977 518.898 l 244.758
 490.277 l 252.473 493.504 l h
390.52 427.148 m 375.23 438.652 l 339.312 525.07 l 315.184 532.227 l 275.34
 435.566 l 261.031 428.41 l 265.52 419.293 l 317.852 419.293 l 317.852 427.148
 l 302.559 436.266 l 332.719 510.059 l 362.32 438.512 l 340.859 428.41 l
 345.348 419.293 l 390.66 419.293 l h
496.133 532.227 m 486.031 529.699 l 397.395 529.699 l 397.395 521.844 l
 410.555 511.461 l 410.555 433.039 l 394.98 428.41 l 399.641 419.293 l 484.629
 419.293 l 494.73 416.766 l 494.73 452.539 l 487.012 455.625 l 469.785 429.953
 l 435.977 429.953 l 435.977 467.832 l 452.641 467.832 l 462.883 452.121
 l 470.738 452.121 l 470.738 492.945 l 461.621 497.574 l 452.5 478.633 l
 435.977 478.633 l 435.977 518.898 l 468.633 518.898 l 488.414 490.277 l
 496.133 493.504 l h
625.48 520.441 m 620.992 529.559 l 590.547 529.559 l 563.473 481.02 l 557.297
 477.23 l 560.805 470.355 l 567.258 470.355 l 572.309 470.355 576.285 468.812
 579.184 465.727 c 582.082 462.641 583.535 458.293 583.535 452.68 c 583.535
 446.133 581.785 440.773 578.285 436.602 c 574.77 432.449 569.645 430.375
 562.91 430.375 c 558.703 430.375 554.773 431.684 551.125 434.301 c 551.125
 516.094 l 566.699 520.582 l 562.207 529.699 l 512.547 529.699 l 512.547
 521.844 l 525.734 510.762 l 525.734 432.898 l 510.16 428.551 l 514.789 
419.43 l 538.078 419.43 l 546.215 419.43 554.211 419.152 562.07 418.59 c
 567.68 418.215 571.891 418.027 574.695 418.027 c 581.898 418.027 588.285
 419.309 593.859 421.871 c 599.414 424.453 603.715 427.941 606.766 432.34
 c 609.797 436.734 611.312 441.645 611.312 447.07 c 611.312 453.617 608.41
 459.695 602.613 465.305 c 596.812 470.918 589.754 475.125 581.43 477.934
 c 592.652 481.16 l 610.891 513.707 l h
625.48 520.441 m f
Q q
175.02 559.484 450.473 23.594 re W n
1 g
181.766 565.434 m 183.293 565.434 184.414 565.992 185.133 567.113 c 185.848
 568.238 186.207 569.828 186.207 571.887 c 186.207 573.141 186.02 574.258
 185.648 575.238 c 185.273 576.223 184.734 576.996 184.031 577.551 c 183.332
 578.109 182.5 578.387 181.539 578.387 c 180.363 578.387 179.402 577.969
 178.652 577.129 c 178.652 582.691 l 175.039 583.078 l 175.039 565.844 l
 178.242 565.844 l 178.402 567.195 l 178.875 566.602 179.406 566.16 179.996
 565.867 c 180.582 565.578 181.172 565.434 181.766 565.434 c h
180.645 568.113 m 179.883 568.113 179.219 568.586 178.652 569.531 c 178.652
 574.656 l 178.914 575.023 179.184 575.293 179.469 575.469 c 179.75 575.645
 180.074 575.734 180.438 575.734 c 181.109 575.734 181.617 575.43 181.965
 574.828 c 182.305 574.227 182.477 573.262 182.477 571.934 c 182.477 570.5
 182.324 569.504 182.02 568.945 c 181.715 568.391 181.254 568.113 180.645
 568.113 c h
192.387 565.844 m 192.387 574.152 l 192.387 574.719 192.488 575.117 192.691
 575.352 c 192.902 575.59 193.211 575.711 193.621 575.711 c 193.988 575.711
 194.363 575.59 194.742 575.352 c 195.125 575.117 195.438 574.793 195.684
 574.383 c 195.684 565.844 l 199.297 565.844 l 199.297 578 l 196.141 578
 l 195.98 576.578 l 195.582 577.16 195.051 577.605 194.379 577.918 c 193.707
 578.23 192.996 578.387 192.25 578.387 c 191.105 578.387 190.238 578.055
 189.648 577.391 c 189.062 576.727 188.77 575.801 188.77 574.613 c 188.77
 565.844 l h
211.773 565.48 m 212.504 565.48 213.176 565.602 213.785 565.844 c 213.121
 570.926 l 210.832 570.926 l 210.832 568.684 l 210.164 568.805 209.566 569.172
 209.047 569.781 c 208.527 570.391 208.121 571.164 207.836 572.094 c 207.836
 575.574 l 210.238 575.574 l 210.238 578 l 202.617 578 l 202.617 575.574
 l 204.219 575.574 l 204.219 568.25 l 202.617 568.25 l 202.617 565.844 l
 206.988 565.844 l 207.629 568.57 l 208.07 567.531 208.629 566.758 209.297
 566.242 c 209.969 565.734 210.797 565.48 211.773 565.48 c h
220.512 564.816 m 220.512 568.637 l 226.004 568.637 l 226.004 571.246 l
 220.512 571.246 l 220.512 575.297 l 227.125 575.297 l 227.125 578 l 216.758
 578 l 216.758 562.137 l 227.125 562.137 l 226.734 564.816 l h
250.562 559.484 m 251.172 559.484 251.68 559.676 252.082 560.062 c 252.488
 560.453 252.691 560.941 252.691 561.52 c 252.691 562.098 252.488 562.582
 252.082 562.973 c 251.68 563.363 251.172 563.559 250.562 563.559 c 249.922
 563.559 249.402 563.367 249.008 562.984 c 248.609 562.602 248.41 562.113
 248.41 561.52 c 248.41 560.941 248.613 560.453 249.016 560.062 c 249.422
 559.676 249.938 559.484 250.562 559.484 c h
252.898 565.844 m 252.898 574.473 l 252.898 576.199 252.578 577.629 251.934
 578.77 c 251.293 579.902 250.344 580.812 249.082 581.492 c 247.828 582.168
 246.215 582.699 244.246 583.078 c 243.695 580.309 l 244.992 580.02 246.043
 579.66 246.84 579.234 c 247.645 578.809 248.25 578.23 248.664 577.508 c
 249.074 576.781 249.281 575.848 249.281 574.703 c 249.281 568.316 l 244.934
 568.316 l 244.934 565.844 l h
267.66 574.496 m 267.66 574.941 267.719 575.27 267.844 575.48 c 267.965
 575.695 268.172 575.855 268.461 575.961 c 267.707 578.344 l 266.973 578.266
 266.363 578.102 265.875 577.848 c 265.387 577.598 265.004 577.227 264.73
 576.738 c 264.273 577.273 263.691 577.68 262.992 577.961 c 262.289 578.246
 261.539 578.387 260.746 578.387 c 259.496 578.387 258.496 578.031 257.75
 577.32 c 257 576.613 256.629 575.695 256.629 574.566 c 256.629 573.254 
257.145 572.234 258.184 571.508 c 259.223 570.785 260.68 570.422 262.555
 570.422 c 264.18 570.422 l 264.18 569.988 l 264.18 568.738 263.379 568.113
 261.777 568.113 c 261.363 568.113 260.848 568.168 260.23 568.281 c 259.613
 568.398 259.016 568.555 258.438 568.754 c 257.613 566.348 l 258.391 566.059
 259.203 565.832 260.047 565.672 c 260.895 565.512 261.664 565.434 262.348
 565.434 c 265.891 565.434 267.66 566.867 267.66 569.738 c h
261.984 575.801 m 262.395 575.801 262.809 575.684 263.227 575.445 c 263.648
 575.211 263.965 574.887 264.18 574.473 c 264.18 572.484 l 263.289 572.484
 l 261.336 572.484 260.359 573.094 260.359 574.312 c 260.359 574.785 260.5
 575.152 260.777 575.414 c 261.062 575.672 261.465 575.801 261.984 575.801
 c h
276.488 575.07 m 279.465 562.137 l 283.309 562.137 l 278.73 578 l 274.109
 578 l 269.555 562.137 l 273.535 562.137 l h
295.121 574.496 m 295.121 574.941 295.18 575.27 295.305 575.48 c 295.426
 575.695 295.633 575.855 295.922 575.961 c 295.164 578.344 l 294.434 578.266
 293.824 578.102 293.336 577.848 c 292.848 577.598 292.465 577.227 292.191
 576.738 c 291.734 577.273 291.152 577.68 290.449 577.961 c 289.75 578.246
 289 578.387 288.207 578.387 c 286.957 578.387 285.957 578.031 285.211 577.32
 c 284.461 576.613 284.09 575.695 284.09 574.566 c 284.09 573.254 284.605
 572.234 285.645 571.508 c 286.684 570.785 288.141 570.422 290.016 570.422
 c 291.641 570.422 l 291.641 569.988 l 291.641 568.738 290.84 568.113 289.238
 568.113 c 288.824 568.113 288.312 568.168 287.695 568.281 c 287.074 568.398
 286.477 568.555 285.895 568.754 c 285.074 566.348 l 285.852 566.059 286.664
 565.832 287.512 565.672 c 288.355 565.512 289.125 565.434 289.809 565.434
 c 293.352 565.434 295.121 566.867 295.121 569.738 c h
289.445 575.801 m 289.855 575.801 290.273 575.684 290.695 575.445 c 291.113
 575.211 291.426 574.887 291.641 574.473 c 291.641 572.484 l 290.75 572.484
 l 288.797 572.484 287.82 573.094 287.82 574.312 c 287.82 574.785 287.961
 575.152 288.246 575.414 c 288.523 575.672 288.926 575.801 289.445 575.801
 c h
322.676 578 m 318.695 578 l 317.641 569.828 l 316.543 578 l 312.629 578
 l 310.82 565.844 l 314.141 565.844 l 314.941 575.734 l 316.199 567.379 
l 319.266 567.379 l 320.387 575.734 l 321.211 565.844 l 324.418 565.844 
l h
330.363 564.816 m 330.363 568.637 l 335.855 568.637 l 335.855 571.246 l
 330.363 571.246 l 330.363 575.297 l 336.977 575.297 l 336.977 578 l 326.609
 578 l 326.609 562.137 l 336.977 562.137 l 336.586 564.816 l h
343.43 567.082 m 343.812 566.562 344.273 566.16 344.816 565.867 c 345.359
 565.578 345.934 565.434 346.543 565.434 c 348.055 565.434 349.18 566 349.922
 567.129 c 350.66 568.258 351.031 569.844 351.031 571.887 c 351.031 573.156
 350.84 574.277 350.457 575.254 c 350.078 576.23 349.52 576.996 348.785 
577.551 c 348.055 578.109 347.176 578.387 346.156 578.387 c 345.543 578.387
 344.98 578.258 344.461 578 c 343.941 577.738 343.508 577.375 343.156 576.898
 c 343.02 578 l 339.816 578 l 339.816 561.016 l 343.43 560.629 l h
345.215 575.758 m 346.605 575.758 347.301 574.48 347.301 571.934 c 347.301
 570.516 347.141 569.523 346.82 568.957 c 346.5 568.395 346.023 568.113 
345.398 568.113 c 344.652 568.113 343.996 568.586 343.43 569.531 c 343.43
 574.656 l 343.902 575.391 344.5 575.758 345.215 575.758 c h
375.016 560.629 m 376.574 560.629 377.961 560.887 379.184 561.406 c 378.176
 563.762 l 377.398 563.457 376.535 563.305 375.59 563.305 c 374.871 563.305
 374.355 563.434 374.043 563.695 c 373.73 563.953 373.574 564.379 373.574
 564.977 c 373.574 566.602 l 377.535 566.602 l 377.121 569.117 l 373.574
 569.117 l 373.574 578 l 369.98 578 l 369.98 569.117 l 367.418 569.117 l
 367.418 566.602 l 369.98 566.602 l 369.98 564.863 l 369.98 563.609 370.418
 562.59 371.293 561.805 c 372.172 561.02 373.414 560.629 375.016 560.629
 c h
392.246 566.969 m 392.246 568.035 391.961 568.93 391.391 569.652 c 390.816
 570.379 390.051 570.934 389.086 571.316 c 393.23 578 l 388.973 578 l 385.539
 571.934 l 384.488 571.934 l 384.488 578 l 380.734 578 l 380.734 562.137
 l 385.723 562.137 l 387.906 562.137 389.539 562.535 390.621 563.328 c 391.703
 564.121 392.246 565.336 392.246 566.969 c h
388.379 566.969 m 388.379 566.203 388.16 565.648 387.727 565.297 c 387.293
 564.945 386.625 564.77 385.723 564.77 c 384.488 564.77 l 384.488 569.348
 l 385.883 569.348 l 386.707 569.348 387.328 569.156 387.75 568.773 c 388.168
 568.395 388.379 567.789 388.379 566.969 c h
404.973 574.496 m 404.973 574.941 405.031 575.27 405.156 575.48 c 405.277
 575.695 405.484 575.855 405.773 575.961 c 405.016 578.344 l 404.285 578.266
 403.676 578.102 403.188 577.848 c 402.699 577.598 402.316 577.227 402.043
 576.738 c 401.586 577.273 401.004 577.68 400.301 577.961 c 399.602 578.246
 398.852 578.387 398.059 578.387 c 396.809 578.387 395.809 578.031 395.062
 577.32 c 394.312 576.613 393.941 575.695 393.941 574.566 c 393.941 573.254
 394.457 572.234 395.496 571.508 c 396.535 570.785 397.992 570.422 399.867
 570.422 c 401.492 570.422 l 401.492 569.988 l 401.492 568.738 400.691 568.113
 399.09 568.113 c 398.676 568.113 398.164 568.168 397.547 568.281 c 396.926
 568.398 396.328 568.555 395.746 568.754 c 394.926 566.348 l 395.703 566.059
 396.516 565.832 397.363 565.672 c 398.211 565.512 398.977 565.434 399.66
 565.434 c 403.203 565.434 404.973 566.867 404.973 569.738 c h
399.297 575.801 m 399.707 575.801 400.125 575.684 400.547 575.445 c 400.965
 575.211 401.277 574.887 401.492 574.473 c 401.492 572.484 l 400.602 572.484
 l 398.648 572.484 397.672 573.094 397.672 574.312 c 397.672 574.785 397.812
 575.152 398.098 575.414 c 398.375 575.672 398.777 575.801 399.297 575.801
 c h
417.469 565.434 m 418.34 565.434 418.973 565.719 419.379 566.289 c 419.781
 566.863 419.984 567.77 419.984 569.004 c 419.984 578 l 416.895 578 l 416.895
 569.414 l 416.895 568.973 416.852 568.668 416.77 568.5 c 416.684 568.332
 416.531 568.25 416.301 568.25 c 415.875 568.25 415.453 568.516 415.043 
569.051 c 415.043 578 l 412.48 578 l 412.48 569.414 l 412.48 568.973 412.438
 568.668 412.352 568.5 c 412.27 568.332 412.113 568.25 411.883 568.25 c 
411.457 568.25 411.035 568.516 410.625 569.051 c 410.625 578 l 407.488 578
 l 407.488 565.844 l 410.121 565.844 l 410.375 567.012 l 410.77 566.465 
411.16 566.062 411.551 565.809 c 411.941 565.559 412.395 565.434 412.914
 565.434 c 413.387 565.434 413.785 565.551 414.105 565.785 c 414.426 566.023
 414.652 566.387 414.789 566.875 c 415.613 565.914 416.508 565.434 417.469
 565.434 c h
425.336 572.988 m 425.566 574.832 426.543 575.758 428.266 575.758 c 429.305
 575.758 430.344 575.422 431.379 574.75 c 432.82 576.719 l 432.227 577.234
 431.516 577.645 430.691 577.938 c 429.867 578.238 428.961 578.387 427.969
 578.387 c 426.609 578.387 425.461 578.117 424.512 577.574 c 423.566 577.031
 422.855 576.277 422.375 575.309 c 421.895 574.34 421.652 573.215 421.652
 571.934 c 421.652 570.715 421.887 569.609 422.352 568.625 c 422.816 567.641
 423.496 566.863 424.391 566.289 c 425.281 565.719 426.344 565.434 427.578
 565.434 c 428.738 565.434 429.746 565.68 430.602 566.176 c 431.457 566.672
 432.117 567.391 432.582 568.328 c 433.047 569.266 433.277 570.387 433.277
 571.684 c 433.277 572.184 433.258 572.621 433.211 572.988 c h
427.578 567.859 m 426.926 567.859 426.398 568.098 426 568.578 c 425.605
 569.059 425.367 569.797 425.293 570.789 c 429.754 570.789 l 429.723 568.836
 429 567.859 427.578 567.859 c h
446.258 578 m 442.273 578 l 441.223 569.828 l 440.121 578 l 436.207 578
 l 434.402 565.844 l 437.719 565.844 l 438.52 575.734 l 439.777 567.379 
l 442.848 567.379 l 443.969 575.734 l 444.793 565.844 l 447.996 565.844 
l h
454.93 565.434 m 456.777 565.434 458.223 566.016 459.266 567.184 c 460.312
 568.352 460.836 569.918 460.836 571.887 c 460.836 573.934 460.316 575.527
 459.281 576.672 c 458.242 577.816 456.793 578.387 454.93 578.387 c 453.07
 578.387 451.621 577.82 450.582 576.68 c 449.543 575.547 449.027 573.957
 449.027 571.91 c 449.027 570.613 449.258 569.48 449.723 568.508 c 450.188
 567.543 450.867 566.785 451.758 566.242 c 452.652 565.703 453.711 565.434
 454.93 565.434 c h
454.93 568.113 m 454.184 568.113 453.633 568.41 453.281 569.012 c 452.934
 569.617 452.758 570.582 452.758 571.91 c 452.758 573.254 452.934 574.227
 453.281 574.828 c 453.633 575.43 454.184 575.734 454.93 575.734 c 455.68
 575.734 456.227 575.43 456.578 574.816 c 456.93 574.207 457.105 573.23 
457.105 571.887 c 457.105 570.574 456.93 569.617 456.578 569.012 c 456.227
 568.41 455.68 568.113 454.93 568.113 c h
472.668 565.48 m 473.402 565.48 474.074 565.602 474.684 565.844 c 474.02
 570.926 l 471.73 570.926 l 471.73 568.684 l 471.059 568.805 470.465 569.172
 469.945 569.781 c 469.426 570.391 469.023 571.164 468.73 572.094 c 468.73
 575.574 l 471.137 575.574 l 471.137 578 l 463.516 578 l 463.516 575.574
 l 465.117 575.574 l 465.117 568.25 l 463.516 568.25 l 463.516 565.844 l
 467.887 565.844 l 468.527 568.57 l 468.969 567.531 469.527 566.758 470.195
 566.242 c 470.867 565.734 471.691 565.48 472.668 565.48 c h
480.742 560.629 m 480.742 578 l 477.129 578 l 477.129 561.016 l h
488.664 565.844 m 484.656 571.223 l 488.984 578 l 484.863 578 l 480.883
 571.34 l 484.887 565.844 l h
496.125 573.285 m 496.84 573.285 497.438 573.52 497.91 573.992 c 498.383
 574.465 498.617 575.055 498.617 575.758 c 498.617 576.184 498.551 576.605
 498.414 577.023 c 498.277 577.445 498.016 578.074 497.633 578.914 c 495.988
 582.645 l 493.562 582.645 l 494.727 577.793 l 494.391 577.578 494.129 577.293
 493.941 576.934 c 493.75 576.574 493.652 576.176 493.652 575.734 c 493.652
 575.047 493.891 574.465 494.363 573.992 c 494.836 573.52 495.422 573.285
 496.125 573.285 c h
523.496 561.727 m 525.391 561.727 526.836 562.297 527.832 563.441 c 528.832
 564.586 529.336 566.129 529.336 568.066 c 529.336 570.094 528.992 571.812
 528.305 573.215 c 527.617 574.617 526.566 575.762 525.156 576.648 c 523.746
 577.535 521.918 578.211 519.676 578.684 c 518.922 576.145 l 520.812 575.672
 522.285 575.043 523.336 574.254 c 524.391 573.469 525.094 572.461 525.441
 571.223 c 524.953 571.652 524.453 571.977 523.934 572.195 c 523.414 572.418
 522.84 572.527 522.215 572.527 c 521.391 572.527 520.637 572.316 519.949
 571.887 c 519.262 571.461 518.723 570.859 518.324 570.09 c 517.93 569.32
 517.73 568.438 517.73 567.449 c 517.73 566.32 517.98 565.32 518.484 564.457
 c 518.988 563.598 519.676 562.926 520.547 562.445 c 521.414 561.965 522.398
 561.727 523.496 561.727 c h
521.371 567.332 m 521.371 568.25 521.547 568.922 521.906 569.348 c 522.266
 569.773 522.742 569.988 523.336 569.988 c 524.117 569.988 524.871 569.684
 525.602 569.074 c 525.617 567.93 525.566 567.02 525.453 566.348 c 525.34
 565.676 525.129 565.168 524.824 564.824 c 524.52 564.484 524.07 564.312
 523.477 564.312 c 522.805 564.312 522.285 564.559 521.918 565.055 c 521.551
 565.551 521.371 566.312 521.371 567.332 c h
537.227 561.727 m 539.117 561.727 540.562 562.297 541.566 563.441 c 542.562
 564.586 543.062 566.129 543.062 568.066 c 543.062 570.094 542.719 571.812
 542.031 573.215 c 541.344 574.617 540.297 575.762 538.887 576.648 c 537.473
 577.535 535.648 578.211 533.402 578.684 c 532.648 576.145 l 534.539 575.672
 536.012 575.043 537.066 574.254 c 538.117 573.469 538.82 572.461 539.172
 571.223 c 538.684 571.652 538.18 571.977 537.66 572.195 c 537.141 572.418
 536.57 572.527 535.945 572.527 c 535.121 572.527 534.363 572.316 533.68
 571.887 c 532.992 571.461 532.449 570.859 532.055 570.09 c 531.656 569.32
 531.457 568.438 531.457 567.449 c 531.457 566.32 531.711 565.32 532.215
 564.457 c 532.719 563.598 533.402 562.926 534.273 562.445 c 535.145 561.965
 536.129 561.727 537.227 561.727 c h
535.098 567.332 m 535.098 568.25 535.277 568.922 535.637 569.348 c 535.996
 569.773 536.469 569.988 537.066 569.988 c 537.844 569.988 538.598 569.684
 539.332 569.074 c 539.348 567.93 539.297 567.02 539.184 566.348 c 539.07
 565.676 538.859 565.168 538.555 564.824 c 538.25 564.484 537.797 564.312
 537.203 564.312 c 536.531 564.312 536.012 564.559 535.648 565.055 c 535.281
 565.551 535.098 566.312 535.098 567.332 c h
553.91 561.609 m 555.832 562.414 l 548.027 578.664 l 546.129 577.863 l 
h
547.547 561.727 m 548.555 561.727 549.348 562.055 549.93 562.711 c 550.508
 563.367 550.797 564.234 550.797 565.32 c 550.797 566.418 550.508 567.289
 549.93 567.938 c 549.348 568.586 548.555 568.914 547.547 568.914 c 546.512
 568.914 545.703 568.586 545.121 567.938 c 544.543 567.289 544.254 566.418
 544.254 565.32 c 544.254 564.25 544.547 563.383 545.137 562.719 c 545.723
 562.059 546.527 561.727 547.547 561.727 c h
547.547 563.512 m 547.184 563.512 546.938 563.656 546.816 563.945 c 546.695
 564.234 546.633 564.695 546.633 565.32 c 546.633 565.914 546.699 566.363
 546.828 566.668 c 546.957 566.977 547.195 567.129 547.547 567.129 c 547.898
 567.129 548.137 566.98 548.258 566.691 c 548.379 566.402 548.441 565.945
 548.441 565.32 c 548.441 564.664 548.379 564.199 548.258 563.922 c 548.137
 563.648 547.898 563.512 547.547 563.512 c h
554.574 570.973 m 555.582 570.973 556.375 571.297 556.953 571.941 c 557.535
 572.594 557.824 573.469 557.824 574.566 c 557.824 575.664 557.535 576.535
 556.953 577.176 c 556.375 577.816 555.582 578.137 554.574 578.137 c 553.535
 578.137 552.727 577.816 552.148 577.176 c 551.57 576.535 551.277 575.664
 551.277 574.566 c 551.277 573.496 551.574 572.633 552.164 571.965 c 552.75
 571.305 553.551 570.973 554.574 570.973 c h
554.574 572.734 m 554.207 572.734 553.965 572.883 553.844 573.18 c 553.719
 573.477 553.66 573.941 553.66 574.566 c 553.66 575.145 553.727 575.59 553.855
 575.895 c 553.984 576.199 554.223 576.352 554.574 576.352 c 554.926 576.352
 555.16 576.207 555.285 575.918 c 555.406 575.625 555.469 575.176 555.469
 574.566 c 555.469 573.91 555.406 573.441 555.285 573.156 c 555.16 572.875
 554.926 572.734 554.574 572.734 c h
583.711 562.137 m 583.711 572.301 l 583.711 574.16 583.148 575.633 582.027
 576.719 c 580.906 577.801 579.34 578.344 577.324 578.344 c 576.348 578.344
 575.488 578.219 574.746 577.977 c 574.008 577.73 573.273 577.359 572.543
 576.855 c 573.961 574.543 l 574.512 574.91 575.02 575.168 575.492 575.32
 c 575.969 575.473 576.508 575.551 577.117 575.551 c 577.957 575.551 578.641
 575.277 579.164 574.734 c 579.691 574.195 579.957 573.391 579.957 572.324
 c 579.957 564.883 l 575.105 564.883 l 575.105 562.137 l h
597.211 574.496 m 597.211 574.941 597.27 575.27 597.395 575.48 c 597.516
 575.695 597.723 575.855 598.012 575.961 c 597.254 578.344 l 596.523 578.266
 595.914 578.102 595.426 577.848 c 594.938 577.598 594.555 577.227 594.281
 576.738 c 593.824 577.273 593.242 577.68 592.539 577.961 c 591.84 578.246
 591.09 578.387 590.297 578.387 c 589.047 578.387 588.047 578.031 587.301
 577.32 c 586.551 576.613 586.18 575.695 586.18 574.566 c 586.18 573.254
 586.695 572.234 587.734 571.508 c 588.773 570.785 590.23 570.422 592.105
 570.422 c 593.73 570.422 l 593.73 569.988 l 593.73 568.738 592.93 568.113
 591.328 568.113 c 590.914 568.113 590.402 568.168 589.785 568.281 c 589.164
 568.398 588.566 568.555 587.984 568.754 c 587.16 566.348 l 587.941 566.059
 588.754 565.832 589.602 565.672 c 590.445 565.512 591.215 565.434 591.898
 565.434 c 595.441 565.434 597.211 566.867 597.211 569.738 c h
591.535 575.801 m 591.945 575.801 592.363 575.684 592.785 575.445 c 593.203
 575.211 593.516 574.887 593.73 574.473 c 593.73 572.484 l 592.84 572.484
 l 590.887 572.484 589.91 573.094 589.91 574.312 c 589.91 574.785 590.051
 575.152 590.336 575.414 c 590.613 575.672 591.016 575.801 591.535 575.801
 c h
612.18 565.844 m 608.129 578 l 603.871 578 l 599.773 565.844 l 603.688 
565.844 l 606.043 575.23 l 608.516 565.844 l h
624.676 574.496 m 624.676 574.941 624.734 575.27 624.859 575.48 c 624.98
 575.695 625.188 575.855 625.477 575.961 c 624.723 578.344 l 623.988 578.266
 623.379 578.102 622.891 577.848 c 622.402 577.598 622.02 577.227 621.746
 576.738 c 621.289 577.273 620.707 577.68 620.008 577.961 c 619.305 578.246
 618.555 578.387 617.762 578.387 c 616.512 578.387 615.512 578.031 614.766
 577.32 c 614.016 576.613 613.645 575.695 613.645 574.566 c 613.645 573.254
 614.16 572.234 615.199 571.508 c 616.238 570.785 617.695 570.422 619.57
 570.422 c 621.195 570.422 l 621.195 569.988 l 621.195 568.738 620.395 568.113
 618.793 568.113 c 618.379 568.113 617.863 568.168 617.246 568.281 c 616.629
 568.398 616.031 568.555 615.453 568.754 c 614.629 566.348 l 615.406 566.059
 616.219 565.832 617.062 565.672 c 617.91 565.512 618.68 565.434 619.363
 565.434 c 622.906 565.434 624.676 566.867 624.676 569.738 c h
619 575.801 m 619.41 575.801 619.824 575.684 620.242 575.445 c 620.664 
575.211 620.984 574.887 621.195 574.473 c 621.195 572.484 l 620.305 572.484
 l 618.352 572.484 617.375 573.094 617.375 574.312 c 617.375 574.785 617.516
 575.152 617.797 575.414 c 618.078 575.672 618.48 575.801 619 575.801 c 
h
619 575.801 m f
Q q
690.422 416.766 157.418 166.312 re W n
1 g
828.809 416.766 m 808.887 416.766 789.141 416.766 769.219 416.766 c 749.297
 416.766 729.199 416.766 709.277 416.766 c 698.602 416.766 690.422 424.77
 690.422 435.266 c 690.422 468.352 690.422 501.258 690.422 534.344 c 690.422
 536.297 690.777 538.254 691.309 540.035 c 693.621 547.859 700.559 553.02
 708.742 553.02 c 713.367 553.02 717.992 553.02 722.617 553.02 c 725.105
 558.531 728.664 563.691 733.113 568.137 c 742.715 577.742 755.523 583.078
 769.219 583.078 c 782.918 583.078 795.723 577.742 805.328 568.137 c 809.777
 563.691 813.332 558.531 815.824 553.02 c 820.094 553.02 824.363 553.02 
828.629 553.02 c 831.656 553.02 834.68 552.664 837.348 551.238 c 844.285
 547.684 847.84 541.992 847.84 534.164 c 847.84 501.434 847.84 468.527 847.84
 435.797 c 847.84 424.77 840.016 416.766 828.809 416.766 c h
827.031 426.371 m 830.41 426.371 833.078 429.039 833.078 432.418 c 833.078
 435.797 830.41 438.465 827.031 438.465 c 823.648 438.465 820.98 435.797
 820.98 432.418 c 820.98 429.039 823.648 426.371 827.031 426.371 c h
806.039 426.371 m 809.422 426.371 812.09 429.039 812.09 432.418 c 812.09
 435.797 809.422 438.465 806.039 438.465 c 802.66 438.465 799.992 435.797
 799.992 432.418 c 799.992 429.039 802.84 426.371 806.039 426.371 c h
785.23 426.371 m 788.609 426.371 791.277 429.039 791.277 432.418 c 791.277
 435.797 788.609 438.465 785.23 438.465 c 781.848 438.465 779.18 435.797
 779.18 432.418 c 779.18 429.039 781.848 426.371 785.23 426.371 c h
728.309 532.207 m 728.309 528.648 728.844 524.914 729.73 521.535 c 744.672
 521.535 l 744.141 525.27 743.961 529.004 743.961 532.742 c 743.961 536.121
 744.141 539.5 744.496 542.879 c 739.516 542.879 734.535 542.879 729.73 
542.879 c 728.844 539.324 728.309 535.766 728.309 532.207 c h
754.102 532.742 m 754.102 529.004 754.457 525.27 754.988 521.535 c 783.449
 521.535 l 783.984 524.914 784.16 528.293 784.16 531.672 c 784.16 535.41
 783.805 539.145 783.273 542.879 c 773.668 542.879 764.238 542.879 754.633
 542.879 c 754.277 539.5 754.102 535.941 754.102 532.742 c h
757.125 511.219 m 759.258 504.102 762.281 497.523 766.375 491.297 c 768.332
 491.117 770.289 491.117 772.242 491.297 c 776.156 497.523 779.18 504.102
 781.137 511.219 c h
785.941 494.852 m 793.59 498.234 800.172 504.102 804.441 511.395 c 791.809
 511.395 l 790.387 505.527 788.43 500.012 785.941 494.852 c h
793.59 521.355 m 808.707 521.355 l 809.598 524.914 810.133 528.473 810.133
 532.031 c 810.133 535.586 809.598 539.145 808.707 542.703 c 803.727 542.703
 798.57 542.703 793.59 542.703 c 794.121 538.965 794.301 535.23 794.301 
531.496 c 794.301 528.117 794.121 524.738 793.59 521.355 c h
746.629 511.219 m 734 511.219 l 738.449 503.926 745.027 498.055 752.855
 494.676 c 750.188 500.012 748.055 505.527 746.629 511.219 c h
734.18 553.02 m 734.535 553.02 735.066 553.02 735.422 553.02 c 739.16 553.02
 742.715 553.02 746.453 553.02 c 747.875 558.711 749.832 564.047 752.32 
569.207 c 744.672 565.824 738.27 560.133 734.18 553.02 c h
765.84 572.941 m 761.926 566.715 758.902 560.133 756.945 553.195 c 764.953
 553.195 772.957 553.195 781.137 553.195 c 779.004 560.312 775.98 566.895
 771.887 573.117 c 769.574 573.117 767.797 573.117 765.84 572.941 c h
785.23 569.738 m 787.898 564.402 790.031 558.891 791.453 553.02 c 795.723
 553.02 799.992 553.02 804.262 553.02 c 799.816 560.488 793.234 566.359 
785.23 569.738 c h
837.523 450.027 m 837.523 478.133 837.523 506.238 837.523 534.344 c 837.523
 539.5 834.145 542.879 828.988 542.879 c 825.785 542.879 822.406 542.879
 819.203 542.879 c 819.914 539.5 820.27 535.941 820.27 532.207 c 820.27 
518.512 814.934 505.703 805.328 496.098 c 795.723 486.492 782.918 481.156
 769.219 481.156 c 755.523 481.156 742.715 486.492 733.113 496.098 c 723.508
 505.703 718.168 518.512 718.168 532.207 c 718.168 535.766 718.527 539.324
 719.238 542.879 c 716.035 542.879 712.832 542.879 709.453 542.879 c 704.117
 542.879 700.914 539.68 700.914 534.344 c 700.914 506.238 700.914 478.133
 700.914 449.852 c 700.914 449.316 700.914 448.961 700.914 448.25 c 746.453
 448.25 791.809 448.25 837.348 448.25 c 837.523 448.785 837.523 449.496 
837.523 450.027 c h
837.523 450.027 m f
Q Q
showpage
%%Trailer
end
%%EOF
