%!PS-Adobe-3.0 EPSF-3.0
%%Creator: cairo 1.16.0 (https://cairographics.org)
%%CreationDate: Sat Jul  8 19:25:24 2023
%%Pages: 1
%%DocumentData: Clean7Bit
%%LanguageLevel: 2
%%BoundingBox: 1 0 997 239
%%EndComments
%%BeginProlog
50 dict begin
/q { gsave } bind def
/Q { grestore } bind def
/cm { 6 array astore concat } bind def
/w { setlinewidth } bind def
/J { setlinecap } bind def
/j { setlinejoin } bind def
/M { setmiterlimit } bind def
/d { setdash } bind def
/m { moveto } bind def
/l { lineto } bind def
/c { curveto } bind def
/h { closepath } bind def
/re { exch dup neg 3 1 roll 5 3 roll moveto 0 rlineto
      0 exch rlineto 0 rlineto closepath } bind def
/S { stroke } bind def
/f { fill } bind def
/f* { eofill } bind def
/n { newpath } bind def
/W { clip } bind def
/W* { eoclip } bind def
/BT { } bind def
/ET { } bind def
/BDC { mark 3 1 roll /BDC pdfmark } bind def
/EMC { mark /EMC pdfmark } bind def
/cairo_store_point { /cairo_point_y exch def /cairo_point_x exch def } def
/Tj { show currentpoint cairo_store_point } bind def
/TJ {
  {
    dup
    type /stringtype eq
    { show } { -0.001 mul 0 cairo_font_matrix dtransform rmoveto } ifelse
  } forall
  currentpoint cairo_store_point
} bind def
/cairo_selectfont { cairo_font_matrix aload pop pop pop 0 0 6 array astore
    cairo_font exch selectfont cairo_point_x cairo_point_y moveto } bind def
/Tf { pop /cairo_font exch def /cairo_font_matrix where
      { pop cairo_selectfont } if } bind def
/Td { matrix translate cairo_font_matrix matrix concatmatrix dup
      /cairo_font_matrix exch def dup 4 get exch 5 get cairo_store_point
      /cairo_font where { pop cairo_selectfont } if } bind def
/Tm { 2 copy 8 2 roll 6 array astore /cairo_font_matrix exch def
      cairo_store_point /cairo_font where { pop cairo_selectfont } if } bind def
/g { setgray } bind def
/rg { setrgbcolor } bind def
/d1 { setcachedevice } bind def
/cairo_data_source {
  CairoDataIndex CairoData length lt
    { CairoData CairoDataIndex get /CairoDataIndex CairoDataIndex 1 add def }
    { () } ifelse
} def
/cairo_flush_ascii85_file { cairo_ascii85_file status { cairo_ascii85_file flushfile } if } def
/cairo_image { image cairo_flush_ascii85_file } def
/cairo_imagemask { imagemask cairo_flush_ascii85_file } def
%%EndProlog
%%BeginSetup
%%EndSetup
%%Page: 1 1
%%BeginPageSetup
%%PageBoundingBox: 1 0 997 239
%%EndPageSetup
q 1 0 996 239 rectclip
1 0 0 -1 0 239 cm q
Q q
718 0 16 238.781 re W n
1 0.643137 0.345098 rg
725.652 0 m 729.762 0 733.09 4.453 733.09 9.949 c 733.09 228.828 l 733.09
 234.324 729.762 238.781 725.652 238.781 c 721.547 238.781 718.215 234.324
 718.215 228.828 c 718.215 9.949 l 718.215 4.453 721.547 0 725.652 0 c h
725.652 0 m f
Q q
1.871 0.594 677.406 164.941 re W n
1 0.643137 0.345098 rg
146.391 165.535 m 131.961 161.93 l 5.297 161.93 l 5.297 150.707 l 24.137
 135.875 l 24.137 23.844 l 1.891 17.23 l 8.504 4.203 l 129.957 4.203 l 144.387
 0.594 l 144.387 51.699 l 133.363 56.109 l 108.715 19.434 l 60.414 19.434
 l 60.414 73.547 l 84.262 73.547 l 98.895 51.098 l 110.117 51.098 l 110.117
 109.418 l 97.09 116.035 l 84.062 88.977 l 60.414 88.977 l 60.414 146.496
 l 107.109 146.496 l 135.367 105.613 l 146.391 110.223 l h
343.602 15.426 m 321.754 31.859 l 270.449 155.316 l 235.977 165.535 l 179.059
 27.449 l 158.617 17.23 l 165.031 4.203 l 239.785 4.203 l 239.785 15.426
 l 217.941 28.453 l 261.031 133.871 l 303.316 31.66 l 272.652 17.23 l 279.066
 4.203 l 343.801 4.203 l h
494.473 165.535 m 480.043 161.93 l 353.422 161.93 l 353.422 150.707 l 372.219
 135.875 l 372.219 23.844 l 349.973 17.23 l 356.629 4.203 l 478.039 4.203
 l 492.469 0.594 l 492.469 51.699 l 481.445 56.109 l 456.836 19.434 l 408.535
 19.434 l 408.535 73.547 l 432.344 73.547 l 446.977 51.098 l 458.199 51.098
 l 458.199 109.418 l 445.172 116.035 l 432.145 88.977 l 408.535 88.977 l
 408.535 146.496 l 455.191 146.496 l 483.449 105.613 l 494.473 110.223 l
 h
679.258 148.703 m 672.844 161.727 l 629.355 161.727 l 590.672 92.383 l 
581.855 86.973 l 586.867 77.152 l 596.086 77.152 l 603.301 77.152 608.977
 74.949 613.121 70.539 c 617.262 66.129 619.332 59.918 619.332 51.902 c 
619.332 42.547 616.836 34.891 611.836 28.934 c 606.812 23 599.492 20.035
 589.871 20.035 c 583.859 20.035 578.246 21.906 573.035 25.645 c 573.035
 142.488 l 595.285 148.902 l 588.871 161.93 l 517.922 161.93 l 517.922 150.707
 l 536.762 134.871 l 536.762 23.641 l 514.516 17.43 l 521.129 4.402 l 554.398
 4.402 l 566.023 4.402 577.445 4 588.668 3.199 c 596.688 2.664 602.699 2.398
 606.707 2.398 c 616.996 2.398 626.121 4.227 634.082 7.891 c 642.02 11.578
 648.168 16.559 652.523 22.84 c 656.852 29.121 659.016 36.133 659.016 43.883
 c 659.016 53.238 654.875 61.922 646.59 69.938 c 638.305 77.953 628.219 
83.969 616.328 87.977 c 632.359 92.586 l 658.414 139.082 l h
679.258 148.703 m f
Q q
35.742 204.477 643.535 33.707 re W n
1 0.643137 0.345098 rg
45.379 212.977 m 47.559 212.977 49.164 213.777 50.188 215.375 c 51.211 
216.98 51.723 219.254 51.723 222.195 c 51.723 223.984 51.457 225.578 50.926
 226.984 c 50.391 228.391 49.621 229.492 48.617 230.285 c 47.613 231.082
 46.426 231.484 45.055 231.484 c 43.375 231.484 42.004 230.883 40.934 229.684
 c 40.934 237.629 l 35.77 238.188 l 35.77 213.566 l 40.344 213.566 l 40.574
 215.492 l 41.25 214.645 42.008 214.012 42.852 213.598 c 43.688 213.184 
44.531 212.977 45.379 212.977 c h
43.777 216.801 m 42.688 216.801 41.742 217.477 40.934 218.828 c 40.934 
226.152 l 41.305 226.676 41.691 227.062 42.098 227.312 c 42.5 227.562 42.961
 227.691 43.484 227.691 c 44.445 227.691 45.168 227.258 45.66 226.395 c 
46.148 225.535 46.395 224.16 46.395 222.262 c 46.395 220.215 46.176 218.789
 45.742 217.992 c 45.305 217.199 44.652 216.801 43.777 216.801 c h
60.551 213.566 m 60.551 225.434 l 60.551 226.242 60.699 226.812 60.988 
227.148 c 61.285 227.488 61.73 227.656 62.316 227.656 c 62.84 227.656 63.375
 227.488 63.918 227.148 c 64.465 226.812 64.91 226.348 65.262 225.762 c 
65.262 213.566 l 70.426 213.566 l 70.426 230.926 l 65.914 230.926 l 65.684
 228.898 l 65.117 229.727 64.355 230.363 63.398 230.809 c 62.438 231.258
 61.426 231.484 60.355 231.484 c 58.723 231.484 57.484 231.008 56.641 230.059
 c 55.805 229.109 55.387 227.789 55.387 226.086 c 55.387 213.566 l h
88.246 213.043 m 89.293 213.043 90.25 213.215 91.125 213.566 c 90.176 220.824
 l 86.906 220.824 l 86.906 217.621 l 85.945 217.793 85.098 218.316 84.355
 219.188 c 83.609 220.062 83.031 221.16 82.621 222.492 c 82.621 227.461 
l 86.055 227.461 l 86.055 230.926 l 75.168 230.926 l 75.168 227.461 l 77.457
 227.461 l 77.457 217 l 75.168 217 l 75.168 213.566 l 81.414 213.566 l 82.328
 217.457 l 82.961 215.973 83.754 214.867 84.707 214.133 c 85.672 213.406
 86.852 213.043 88.246 213.043 c h
100.73 212.094 m 100.73 217.555 l 108.578 217.555 l 108.578 221.281 l 100.73
 221.281 l 100.73 227.07 l 110.18 227.07 l 110.18 230.926 l 95.367 230.926
 l 95.367 208.27 l 110.18 208.27 l 109.625 212.094 l h
143.66 204.477 m 144.531 204.477 145.258 204.754 145.832 205.305 c 146.41
 205.863 146.699 206.559 146.699 207.387 c 146.699 208.215 146.41 208.906
 145.832 209.457 c 145.258 210.016 144.531 210.297 143.66 210.297 c 142.746
 210.297 142.004 210.023 141.438 209.477 c 140.871 208.934 140.586 208.234
 140.586 207.387 c 140.586 206.559 140.875 205.863 141.449 205.305 c 142.031
 204.754 142.766 204.477 143.66 204.477 c h
146.996 213.566 m 146.996 225.891 l 146.996 228.355 146.539 230.398 145.621
 232.027 c 144.707 233.648 143.348 234.945 141.547 235.918 c 139.754 236.883
 137.449 237.641 134.637 238.188 c 133.852 234.23 l 135.703 233.816 137.203
 233.305 138.344 232.691 c 139.492 232.082 140.359 231.262 140.945 230.227
 c 141.535 229.191 141.828 227.852 141.828 226.219 c 141.828 217.098 l 135.617
 217.098 l 135.617 213.566 l h
168.086 225.926 m 168.086 226.555 168.172 227.023 168.348 227.332 c 168.52
 227.637 168.816 227.863 169.23 228.016 c 168.148 231.418 l 167.105 231.309
 166.23 231.074 165.535 230.711 c 164.836 230.355 164.293 229.824 163.898
 229.129 c 163.246 229.891 162.418 230.473 161.414 230.875 c 160.41 231.281
 159.344 231.484 158.211 231.484 c 156.422 231.484 154.996 230.977 153.926
 229.961 c 152.859 228.949 152.324 227.637 152.324 226.023 c 152.324 224.148
 153.066 222.691 154.547 221.652 c 156.031 220.621 158.113 220.105 160.793
 220.105 c 163.113 220.105 l 163.113 219.484 l 163.113 217.695 161.969 216.801
 159.684 216.801 c 159.094 216.801 158.355 216.883 157.473 217.043 c 156.59
 217.211 155.734 217.434 154.906 217.719 c 153.73 214.285 l 154.844 213.871
 156.004 213.547 157.211 213.316 c 158.422 213.09 159.52 212.977 160.5 212.977
 c 165.555 212.977 168.086 215.027 168.086 219.125 c h
159.977 227.789 m 160.566 227.789 161.156 227.617 161.754 227.277 c 162.355
 226.941 162.809 226.48 163.113 225.891 c 163.113 223.047 l 161.84 223.047
 l 159.051 223.047 157.656 223.918 157.656 225.664 c 157.656 226.34 157.855
 226.863 158.258 227.23 c 158.66 227.602 159.234 227.789 159.977 227.789
 c h
180.699 226.742 m 184.949 208.27 l 190.441 208.27 l 183.902 230.926 l 177.297
 230.926 l 170.793 208.27 l 176.48 208.27 l h
207.312 225.926 m 207.312 226.555 207.402 227.023 207.574 227.332 c 207.75
 227.637 208.043 227.863 208.457 228.016 c 207.379 231.418 l 206.332 231.309
 205.461 231.074 204.766 230.711 c 204.066 230.355 203.52 229.824 203.129
 229.129 c 202.477 229.891 201.648 230.473 200.645 230.875 c 199.641 231.281
 198.574 231.484 197.441 231.484 c 195.652 231.484 194.227 230.977 193.156
 229.961 c 192.09 228.949 191.555 227.637 191.555 226.023 c 191.555 224.148
 192.297 222.691 193.777 221.652 c 195.262 220.621 197.34 220.105 200.023
 220.105 c 202.344 220.105 l 202.344 219.484 l 202.344 217.695 201.199 216.801
 198.91 216.801 c 198.324 216.801 197.59 216.883 196.707 217.043 c 195.824
 217.211 194.965 217.434 194.137 217.719 c 192.961 214.285 l 194.07 213.871
 195.234 213.547 196.445 213.316 c 197.652 213.09 198.746 212.977 199.73
 212.977 c 204.785 212.977 207.312 215.027 207.312 219.125 c h
199.207 227.789 m 199.793 227.789 200.391 227.617 200.992 227.277 c 201.59
 226.941 202.039 226.48 202.344 225.891 c 202.344 223.047 l 201.07 223.047
 l 198.277 223.047 196.883 223.918 196.883 225.664 c 196.883 226.34 197.086
 226.863 197.492 227.23 c 197.895 227.602 198.465 227.789 199.207 227.789
 c h
246.68 230.926 m 240.992 230.926 l 239.488 219.254 l 237.918 230.926 l 
232.328 230.926 l 229.746 213.566 l 234.484 213.566 l 235.629 227.691 l 
237.43 215.754 l 241.809 215.754 l 243.41 227.691 l 244.59 213.566 l 249.164
 213.566 l h
257.66 212.094 m 257.66 217.555 l 265.508 217.555 l 265.508 221.281 l 257.66
 221.281 l 257.66 227.07 l 267.109 227.07 l 267.109 230.926 l 252.297 230.926
 l 252.297 208.27 l 267.109 208.27 l 266.555 212.094 l h
276.332 215.332 m 276.875 214.59 277.535 214.012 278.312 213.598 c 279.082
 213.184 279.906 212.977 280.777 212.977 c 282.934 212.977 284.543 213.781
 285.602 215.395 c 286.656 217.008 287.188 219.277 287.188 222.195 c 287.188
 224.008 286.914 225.609 286.367 227.004 c 285.824 228.398 285.027 229.492
 283.98 230.285 c 282.934 231.082 281.684 231.484 280.223 231.484 c 279.348
 231.484 278.543 231.297 277.801 230.926 c 277.062 230.555 276.438 230.035
 275.938 229.359 c 275.742 230.926 l 271.164 230.926 l 271.164 206.668 l
 276.332 206.109 l h
278.879 227.723 m 280.863 227.723 281.855 225.902 281.855 222.262 c 281.855
 220.234 281.629 218.816 281.168 218.012 c 280.711 217.207 280.035 216.801
 279.141 216.801 c 278.074 216.801 277.137 217.477 276.332 218.828 c 276.332
 226.152 l 277.008 227.199 277.855 227.723 278.879 227.723 c h
321.453 206.109 m 323.676 206.109 325.66 206.48 327.402 207.223 c 325.965
 210.59 l 324.852 210.152 323.621 209.938 322.27 209.938 c 321.246 209.938
 320.508 210.121 320.059 210.492 c 319.613 210.863 319.391 211.473 319.391
 212.324 c 319.391 214.645 l 325.047 214.645 l 324.461 218.242 l 319.391
 218.242 l 319.391 230.926 l 314.258 230.926 l 314.258 218.242 l 310.598
 218.242 l 310.598 214.645 l 314.258 214.645 l 314.258 212.16 l 314.258 
210.371 314.883 208.914 316.137 207.789 c 317.391 206.672 319.164 206.109
 321.453 206.109 c h
346.066 215.168 m 346.066 216.691 345.66 217.973 344.844 219.004 c 344.023
 220.043 342.926 220.836 341.555 221.379 c 347.473 230.926 l 341.391 230.926
 l 336.484 222.262 l 334.98 222.262 l 334.98 230.926 l 329.621 230.926 l
 329.621 208.27 l 336.746 208.27 l 339.863 208.27 342.195 208.836 343.746
 209.969 c 345.293 211.102 346.066 212.836 346.066 215.168 c h
340.539 215.168 m 340.539 214.078 340.23 213.281 339.613 212.781 c 338.988
 212.277 338.035 212.027 336.746 212.027 c 334.98 212.027 l 334.98 218.566
 l 336.977 218.566 l 338.152 218.566 339.043 218.297 339.645 217.75 c 340.242
 217.207 340.539 216.344 340.539 215.168 c h
364.246 225.926 m 364.246 226.555 364.332 227.023 364.508 227.332 c 364.68
 227.637 364.977 227.863 365.391 228.016 c 364.312 231.418 l 363.266 231.309
 362.391 231.074 361.695 230.711 c 360.996 230.355 360.453 229.824 360.059
 229.129 c 359.406 229.891 358.578 230.473 357.574 230.875 c 356.574 231.281
 355.504 231.484 354.371 231.484 c 352.582 231.484 351.156 230.977 350.086
 229.961 c 349.02 228.949 348.484 227.637 348.484 226.023 c 348.484 224.148
 349.227 222.691 350.707 221.652 c 352.191 220.621 354.273 220.105 356.953
 220.105 c 359.273 220.105 l 359.273 219.484 l 359.273 217.695 358.133 216.801
 355.844 216.801 c 355.254 216.801 354.52 216.883 353.637 217.043 c 352.754
 217.211 351.898 217.434 351.07 217.719 c 349.891 214.285 l 351.004 213.871
 352.164 213.547 353.375 213.316 c 354.586 213.09 355.68 212.977 356.66 
212.977 c 361.715 212.977 364.246 215.027 364.246 219.125 c h
356.137 227.789 m 356.727 227.789 357.32 227.617 357.922 227.277 c 358.52
 226.941 358.969 226.48 359.273 225.891 c 359.273 223.047 l 358 223.047 
l 355.211 223.047 353.816 223.918 353.816 225.664 c 353.816 226.34 354.02
 226.863 354.422 227.23 c 354.824 227.602 355.395 227.789 356.137 227.789
 c h
382.098 212.977 m 383.34 212.977 384.25 213.383 384.824 214.199 c 385.402
 215.02 385.695 216.312 385.695 218.078 c 385.695 230.926 l 381.281 230.926
 l 381.281 218.664 l 381.281 218.035 381.219 217.598 381.098 217.359 c 380.98
 217.117 380.758 217 380.43 217 c 379.82 217 379.219 217.379 378.633 218.141
 c 378.633 230.926 l 374.969 230.926 l 374.969 218.664 l 374.969 218.035
 374.91 217.598 374.785 217.359 c 374.668 217.117 374.445 217 374.121 217
 c 373.508 217 372.91 217.379 372.32 218.141 c 372.32 230.926 l 367.844 
230.926 l 367.844 213.566 l 371.602 213.566 l 371.961 215.234 l 372.527 
214.449 373.09 213.875 373.641 213.512 c 374.199 213.156 374.852 212.977
 375.59 212.977 c 376.266 212.977 376.832 213.145 377.293 213.48 c 377.75
 213.82 378.074 214.34 378.273 215.035 c 379.449 213.664 380.723 212.977
 382.098 212.977 c h
393.34 223.766 m 393.664 226.402 395.062 227.723 397.523 227.723 c 399.008
 227.723 400.488 227.242 401.969 226.285 c 404.031 229.098 l 403.18 229.836
 402.168 230.418 400.988 230.844 c 399.812 231.27 398.516 231.484 397.098
 231.484 c 395.16 231.484 393.512 231.094 392.16 230.32 c 390.809 229.547
 389.793 228.469 389.109 227.082 c 388.418 225.699 388.074 224.094 388.074
 222.262 c 388.074 220.52 388.406 218.941 389.074 217.535 c 389.738 216.129
 390.707 215.02 391.984 214.199 c 393.258 213.383 394.777 212.977 396.543
 212.977 c 398.199 212.977 399.637 213.328 400.859 214.035 c 402.078 214.746
 403.023 215.77 403.691 217.109 c 404.352 218.453 404.684 220.051 404.684
 221.902 c 404.684 222.621 404.652 223.242 404.586 223.766 c h
396.543 216.441 m 395.605 216.441 394.855 216.785 394.285 217.469 c 393.719
 218.156 393.383 219.211 393.273 220.629 c 399.648 220.629 l 399.605 217.836
 398.57 216.441 396.543 216.441 c h
423.223 230.926 m 417.535 230.926 l 416.031 219.254 l 414.461 230.926 l
 408.871 230.926 l 406.285 213.566 l 411.027 213.566 l 412.172 227.691 l
 413.969 215.754 l 418.352 215.754 l 419.953 227.691 l 421.133 213.566 l
 425.707 213.566 l h
435.617 212.977 m 438.254 212.977 440.316 213.809 441.809 215.473 c 443.305
 217.145 444.051 219.387 444.051 222.195 c 444.051 225.117 443.309 227.395
 441.828 229.031 c 440.344 230.664 438.273 231.484 435.617 231.484 c 432.957
 231.484 430.887 230.668 429.402 229.043 c 427.922 227.422 427.18 225.152
 427.18 222.23 c 427.18 220.375 427.512 218.758 428.172 217.371 c 428.84
 215.988 429.812 214.91 431.082 214.133 c 432.359 213.363 433.871 212.977
 435.617 212.977 c h
435.617 216.801 m 434.547 216.801 433.762 217.23 433.262 218.09 c 432.762
 218.953 432.508 220.332 432.508 222.23 c 432.508 224.148 432.762 225.535
 433.262 226.395 c 433.762 227.258 434.547 227.691 435.617 227.691 c 436.684
 227.691 437.469 227.254 437.969 226.383 c 438.473 225.512 438.723 224.113
 438.723 222.195 c 438.723 220.324 438.473 218.953 437.969 218.09 c 437.469
 217.23 436.684 216.801 435.617 216.801 c h
460.957 213.043 m 462 213.043 462.961 213.215 463.832 213.566 c 462.883
 220.824 l 459.613 220.824 l 459.613 217.621 l 458.656 217.793 457.805 218.316
 457.066 219.188 c 456.324 220.062 455.746 221.16 455.332 222.492 c 455.332
 227.461 l 458.766 227.461 l 458.766 230.926 l 447.875 230.926 l 447.875
 227.461 l 450.164 227.461 l 450.164 217 l 447.875 217 l 447.875 213.566
 l 454.121 213.566 l 455.039 217.457 l 455.668 215.973 456.465 214.867 457.426
 214.133 c 458.383 213.406 459.559 213.043 460.957 213.043 c h
472.492 206.109 m 472.492 230.926 l 467.324 230.926 l 467.324 206.668 l
 h
483.805 213.566 m 478.082 221.25 l 484.262 230.926 l 478.375 230.926 l 
472.688 221.414 l 478.41 213.566 l h
494.465 224.191 m 495.488 224.191 496.336 224.531 497.012 225.203 c 497.688
 225.879 498.027 226.719 498.027 227.723 c 498.027 228.332 497.93 228.938
 497.734 229.535 c 497.535 230.137 497.164 231.035 496.621 232.234 c 494.266
 237.562 l 490.801 237.562 l 492.469 230.633 l 491.988 230.328 491.613 229.918
 491.344 229.402 c 491.07 228.895 490.934 228.32 490.934 227.691 c 490.934
 226.711 491.27 225.879 491.945 225.203 c 492.621 224.531 493.461 224.191
 494.465 224.191 c h
533.566 207.68 m 536.27 207.68 538.336 208.496 539.762 210.133 c 541.191
 211.766 541.906 213.969 541.906 216.738 c 541.906 219.637 541.414 222.09
 540.434 224.094 c 539.453 226.098 537.953 227.734 535.934 228.996 c 533.922
 230.262 531.312 231.23 528.109 231.906 c 527.027 228.277 l 529.73 227.602
 531.836 226.703 533.34 225.578 c 534.844 224.457 535.848 223.016 536.348
 221.25 c 535.648 221.859 534.93 222.32 534.188 222.637 c 533.449 222.953
 532.633 223.113 531.738 223.113 c 530.559 223.113 529.48 222.809 528.5 
222.195 c 527.52 221.586 526.746 220.73 526.18 219.629 c 525.613 218.527
 525.328 217.27 525.328 215.855 c 525.328 214.242 525.688 212.816 526.406
 211.582 c 527.125 210.355 528.109 209.395 529.352 208.707 c 530.594 208.023
 532 207.68 533.566 207.68 c h
530.527 215.691 m 530.527 217 530.781 217.957 531.293 218.566 c 531.809
 219.18 532.488 219.484 533.34 219.484 c 534.449 219.484 535.531 219.047
 536.578 218.176 c 536.598 216.539 536.527 215.242 536.359 214.285 c 536.199
 213.324 535.902 212.598 535.465 212.105 c 535.027 211.617 534.387 211.375
 533.535 211.375 c 532.578 211.375 531.836 211.727 531.312 212.434 c 530.789
 213.145 530.527 214.23 530.527 215.691 c h
553.18 207.68 m 555.883 207.68 557.949 208.496 559.379 210.133 c 560.805
 211.766 561.516 213.969 561.516 216.738 c 561.516 219.637 561.027 222.09
 560.047 224.094 c 559.066 226.098 557.566 227.734 555.555 228.996 c 553.535
 230.262 550.922 231.23 547.719 231.906 c 546.641 228.277 l 549.344 227.602
 551.445 226.703 552.949 225.578 c 554.453 224.457 555.457 223.016 555.957
 221.25 c 555.262 221.859 554.543 222.32 553.801 222.637 c 553.059 222.953
 552.242 223.113 551.348 223.113 c 550.172 223.113 549.094 222.809 548.113
 222.195 c 547.129 221.586 546.355 220.73 545.789 219.629 c 545.223 218.527
 544.941 217.27 544.941 215.855 c 544.941 214.242 545.301 212.816 546.02
 211.582 c 546.738 210.355 547.719 209.395 548.961 208.707 c 550.203 208.023
 551.609 207.68 553.18 207.68 c h
550.141 215.691 m 550.141 217 550.395 217.957 550.91 218.566 c 551.422 
219.18 552.102 219.484 552.949 219.484 c 554.062 219.484 555.141 219.047
 556.188 218.176 c 556.211 216.539 556.141 215.242 555.977 214.285 c 555.812
 213.324 555.512 212.598 555.074 212.105 c 554.641 211.617 553.996 211.375
 553.148 211.375 c 552.188 211.375 551.445 211.727 550.922 212.434 c 550.402
 213.145 550.141 214.23 550.141 215.691 c h
577.016 207.516 m 579.762 208.66 l 568.613 231.875 l 565.898 230.73 l h
567.926 207.68 m 569.363 207.68 570.496 208.148 571.328 209.086 c 572.156
 210.023 572.57 211.266 572.57 212.812 c 572.57 214.383 572.156 215.629 
571.328 216.555 c 570.496 217.48 569.363 217.945 567.926 217.945 c 566.445
 217.945 565.289 217.48 564.461 216.555 c 563.633 215.629 563.219 214.383
 563.219 212.812 c 563.219 211.289 563.637 210.051 564.48 209.098 c 565.316
 208.152 566.465 207.68 567.926 207.68 c h
567.926 210.23 m 567.402 210.23 567.055 210.438 566.879 210.852 c 566.707
 211.266 566.617 211.918 566.617 212.812 c 566.617 213.664 566.711 214.305
 566.898 214.742 c 567.082 215.18 567.426 215.395 567.926 215.395 c 568.426
 215.395 568.766 215.188 568.938 214.773 c 569.113 214.359 569.199 213.707
 569.199 212.812 c 569.199 211.875 569.113 211.211 568.938 210.82 c 568.766
 210.426 568.426 210.23 567.926 210.23 c h
577.965 220.891 m 579.402 220.891 580.535 221.352 581.363 222.277 c 582.191
 223.203 582.605 224.453 582.605 226.023 c 582.605 227.594 582.191 228.836
 581.363 229.75 c 580.535 230.664 579.402 231.125 577.965 231.125 c 576.48
 231.125 575.328 230.664 574.496 229.75 c 573.668 228.836 573.254 227.594
 573.254 226.023 c 573.254 224.496 573.676 223.258 574.516 222.309 c 575.355
 221.363 576.504 220.891 577.965 220.891 c h
577.965 223.406 m 577.441 223.406 577.094 223.617 576.918 224.043 c 576.742
 224.469 576.656 225.129 576.656 226.023 c 576.656 226.852 576.75 227.484
 576.938 227.918 c 577.121 228.355 577.461 228.574 577.965 228.574 c 578.465
 228.574 578.805 228.367 578.977 227.953 c 579.152 227.539 579.238 226.895
 579.238 226.023 c 579.238 225.086 579.152 224.414 578.977 224.008 c 578.805
 223.605 578.465 223.406 577.965 223.406 c h
619.586 208.27 m 619.586 222.785 l 619.586 225.445 618.785 227.547 617.18
 229.098 c 615.582 230.645 613.34 231.418 610.465 231.418 c 609.07 231.418
 607.844 231.242 606.781 230.895 c 605.727 230.547 604.676 230.012 603.629
 229.293 c 605.656 225.988 l 606.441 226.512 607.172 226.883 607.848 227.102
 c 608.523 227.32 609.297 227.43 610.172 227.43 c 611.367 227.43 612.344
 227.039 613.094 226.266 c 613.848 225.492 614.223 224.344 614.223 222.816
 c 614.223 212.191 l 607.293 212.191 l 607.293 208.27 l h
638.871 225.926 m 638.871 226.555 638.957 227.023 639.133 227.332 c 639.309
 227.637 639.602 227.863 640.016 228.016 c 638.938 231.418 l 637.891 231.309
 637.02 231.074 636.32 230.711 c 635.625 230.355 635.078 229.824 634.688
 229.129 c 634.031 229.891 633.203 230.473 632.199 230.875 c 631.199 231.281
 630.129 231.484 628.996 231.484 c 627.211 231.484 625.781 230.977 624.715
 229.961 c 623.645 228.949 623.109 227.637 623.109 226.023 c 623.109 224.148
 623.852 222.691 625.336 221.652 c 626.816 220.621 628.898 220.105 631.578
 220.105 c 633.902 220.105 l 633.902 219.484 l 633.902 217.695 632.758 216.801
 630.469 216.801 c 629.879 216.801 629.145 216.883 628.266 217.043 c 627.379
 217.211 626.523 217.434 625.695 217.719 c 624.516 214.285 l 625.629 213.871
 626.789 213.547 628.004 213.316 c 629.211 213.09 630.305 212.977 631.285
 212.977 c 636.344 212.977 638.871 215.027 638.871 219.125 c h
630.762 227.789 m 631.352 227.789 631.945 227.617 632.547 227.277 c 633.145
 226.941 633.598 226.48 633.902 225.891 c 633.902 223.047 l 632.625 223.047
 l 629.836 223.047 628.441 223.918 628.441 225.664 c 628.441 226.34 628.645
 226.863 629.051 227.23 c 629.449 227.602 630.02 227.789 630.762 227.789
 c h
660.254 213.566 m 654.469 230.926 l 648.387 230.926 l 642.531 213.566 l
 648.125 213.566 l 651.492 226.969 l 655.023 213.566 l h
678.105 225.926 m 678.105 226.555 678.195 227.023 678.367 227.332 c 678.543
 227.637 678.836 227.863 679.25 228.016 c 678.172 231.418 l 677.125 231.309
 676.254 231.074 675.559 230.711 c 674.859 230.355 674.312 229.824 673.922
 229.129 c 673.27 229.891 672.441 230.473 671.438 230.875 c 670.434 231.281
 669.367 231.484 668.234 231.484 c 666.445 231.484 665.016 230.977 663.949
 229.961 c 662.883 228.949 662.348 227.637 662.348 226.023 c 662.348 224.148
 663.09 222.691 664.57 221.652 c 666.055 220.621 668.133 220.105 670.816
 220.105 c 673.137 220.105 l 673.137 219.484 l 673.137 217.695 671.992 216.801
 669.703 216.801 c 669.117 216.801 668.379 216.883 667.492 217.043 c 666.613
 217.211 665.758 217.434 664.93 217.719 c 663.754 214.285 l 664.863 213.871
 666.023 213.547 667.23 213.316 c 668.445 213.09 669.539 212.977 670.52 
212.977 c 675.578 212.977 678.105 215.027 678.105 219.125 c h
670 227.789 m 670.586 227.789 671.18 227.617 671.777 227.277 c 672.379 
226.941 672.832 226.48 673.137 225.891 c 673.137 223.047 l 671.863 223.047
 l 669.07 223.047 667.676 223.918 667.676 225.664 c 667.676 226.34 667.879
 226.863 668.277 227.23 c 668.684 227.602 669.258 227.789 670 227.789 c 
h
670 227.789 m f
Q q
772.031 0.594 224.887 237.59 re W n
1 0.643137 0.345098 rg
969.727 0.594 m 941.266 0.594 913.059 0.594 884.602 0.594 c 856.141 0.594
 827.426 0.594 798.965 0.594 c 783.719 0.594 772.031 12.027 772.031 27.02
 c 772.031 74.285 772.031 121.297 772.031 168.559 c 772.031 171.355 772.539
 174.148 773.301 176.691 c 776.605 187.871 786.516 195.242 798.203 195.242
 c 804.809 195.242 811.418 195.242 818.023 195.242 c 821.582 203.117 826.664
 210.488 833.016 216.84 c 846.738 230.562 865.035 238.188 884.602 238.188
 c 904.168 238.188 922.461 230.562 936.184 216.84 c 942.539 210.488 947.621
 203.117 951.176 195.242 c 957.277 195.242 963.375 195.242 969.473 195.242
 c 973.793 195.242 978.113 194.734 981.926 192.699 c 991.836 187.617 996.918
 179.488 996.918 168.305 c 996.918 121.551 996.918 74.539 996.918 27.785
 c 996.918 12.027 985.734 0.594 969.727 0.594 c h
967.188 14.316 m 972.016 14.316 975.824 18.129 975.824 22.957 c 975.824
 27.785 972.016 31.594 967.188 31.594 c 962.359 31.594 958.547 27.785 958.547
 22.957 c 958.547 18.129 962.359 14.316 967.188 14.316 c h
937.199 14.316 m 942.027 14.316 945.84 18.129 945.84 22.957 c 945.84 27.785
 942.027 31.594 937.199 31.594 c 932.371 31.594 928.562 27.785 928.562 22.957
 c 928.562 18.129 932.625 14.316 937.199 14.316 c h
907.469 14.316 m 912.297 14.316 916.109 18.129 916.109 22.957 c 916.109
 27.785 912.297 31.594 907.469 31.594 c 902.641 31.594 898.832 27.785 898.832
 22.957 c 898.832 18.129 902.641 14.316 907.469 14.316 c h
826.156 165.512 m 826.156 160.43 826.918 155.094 828.188 150.266 c 849.535
 150.266 l 848.77 155.602 848.516 160.938 848.516 166.273 c 848.516 171.102
 848.77 175.93 849.277 180.758 c 842.164 180.758 835.051 180.758 828.188
 180.758 c 826.918 175.676 826.156 170.594 826.156 165.512 c h
863 166.273 m 863 160.938 863.508 155.602 864.273 150.266 c 904.93 150.266
 l 905.691 155.094 905.945 159.922 905.945 164.75 c 905.945 170.086 905.438
 175.422 904.676 180.758 c 890.953 180.758 877.484 180.758 863.762 180.758
 c 863.254 175.93 863 170.848 863 166.273 c h
867.32 135.527 m 870.371 125.363 874.691 115.961 880.535 107.066 c 883.328
 106.812 886.125 106.812 888.922 107.066 c 894.512 115.961 898.832 125.363
 901.625 135.527 c h
908.488 112.148 m 919.414 116.977 928.816 125.363 934.914 135.781 c 916.871
 135.781 l 914.84 127.395 912.043 119.516 908.488 112.148 c h
919.414 150.012 m 941.012 150.012 l 942.281 155.094 943.047 160.176 943.047
 165.258 c 943.047 170.34 942.281 175.422 941.012 180.504 c 933.898 180.504
 926.527 180.504 919.414 180.504 c 920.176 175.168 920.43 169.832 920.43
 164.492 c 920.43 159.668 920.176 154.84 919.414 150.012 c h
852.328 135.527 m 834.285 135.527 l 840.641 125.105 850.043 116.723 861.223
 111.895 c 857.41 119.516 854.363 127.395 852.328 135.527 c h
834.539 195.242 m 835.051 195.242 835.812 195.242 836.32 195.242 c 841.656
 195.242 846.738 195.242 852.074 195.242 c 854.105 203.371 856.902 210.996
 860.461 218.363 c 849.535 213.535 840.387 205.406 834.539 195.242 c h
879.773 223.703 m 874.184 214.809 869.863 205.406 867.066 195.496 c 878.5
 195.496 889.938 195.496 901.625 195.496 c 898.578 205.66 894.258 215.062
 888.41 223.957 c 885.109 223.957 882.566 223.957 879.773 223.703 c h
907.469 219.129 m 911.281 211.504 914.332 203.625 916.363 195.242 c 922.461
 195.242 928.562 195.242 934.66 195.242 c 928.309 205.914 918.906 214.301
 907.469 219.129 c h
982.18 48.113 m 982.18 88.262 982.18 128.41 982.18 168.559 c 982.18 175.93
 977.352 180.758 969.98 180.758 c 965.406 180.758 960.578 180.758 956.004
 180.758 c 957.02 175.93 957.531 170.848 957.531 165.512 c 957.531 145.945
 949.906 127.648 936.184 113.926 c 922.461 100.203 904.168 92.582 884.602
 92.582 c 865.035 92.582 846.738 100.203 833.016 113.926 c 819.293 127.648
 811.672 145.945 811.672 165.512 c 811.672 170.594 812.18 175.676 813.195
 180.758 c 808.621 180.758 804.047 180.758 799.219 180.758 c 791.598 180.758
 787.023 176.184 787.023 168.559 c 787.023 128.41 787.023 88.262 787.023
 47.859 c 787.023 47.098 787.023 46.586 787.023 45.57 c 852.074 45.57 916.871
 45.57 981.926 45.57 c 982.18 46.332 982.18 47.352 982.18 48.113 c h
982.18 48.113 m f
Q Q
showpage
%%Trailer
end
%%EOF
